edu/netcracker/application/musicModel/Music.class
edu/netcracker/application/controller/MusicController.class
edu/netcracker/application/musicModel/impl/RockMusic.class
edu/netcracker/application/musicModel/impl/ClassicalMusic.class
edu/netcracker/application/Application.class
edu/netcracker/application/player/MusicPlayer.class
